ann coulter 
taylor swift 
voter registrations IN NN 
paper trails 
lena dunham 
bin laden 
RP VB elliptical NN CD km \p{Graph}+ NN 
joni ernst 
RB VB DT limited NN sticker 
NN progressive paragons 
food stamps 
NN \p{Graph}+ \p{Graph}+ happy birthday NN 
VB PRP IN DT next 2h CD NN 
voter registrations 
VB \p{Graph}+ \p{Graph}+ \p{Graph}+ marriage equality IN 
happy birthday 
PRP biked CD mi IN NN 
RB VB DT limited \p{Graph}+ sticker 
student loans 
twitter account VB 
earning \p{Graph}+ rewards IN 
task force 
polling location 
VB \p{Graph}+ \p{Graph}+ \p{Graph}+ marriage equality 
NN \p{Graph}+ \p{Graph}+ happy birthday 
VB JJ twisted mental illnesses DT VB NN IN 
PRP polling location 
VB PRP IN DT next 3h CD NN 
PRP VB earning \p{Graph}+ rewards 
twitter account 
NN \p{Graph}+ happy birthday 
marriage equality IN 
marriage equality 
VB RP VB elliptical NN CD km IN 
election NN http 
voter fraud 
VB \p{Graph}+ \p{Graph}+ marriage equality 
