mood swings 
TO \p{Graph}+ napoleon dynamite 
NN haunts me 
TO kill DT mockingbird 
hot tub 
hugh jackman 
french fries IN 
VB NN IN DT regular basis 
PRP VB DT firm believer 
adam sandler 
VB DT root canal 
VB \p{Graph}+ IN great detail 
VB VB IN DT regular basis 
PRP cd player 
NN \p{Graph}+ pain killers 
PRP VB \p{Graph}+ mood swings 
NN merited celebration 
PRP tilted PRP head 
PRP VB IN great detail 
NN \p{Graph}+ IN DT regular basis 
VB VB \p{Graph}+ \p{Graph}+ last night 
NN \p{Graph}+ \p{Graph}+ 40th birthday \p{Graph}+ CD 
IN north carolina 
chicken nuggets \p{Graph}+ NN 
lj username 
DT firm believer IN 
VB \p{Graph}+ \p{Graph}+ shopping spree 
PRP hadn rsquo NN 
excites me 
IN DT shopping spree 
NN NN IN DT daily basis 
power outage 
NN IN DT regular basis 
VB IN DT regular basis 
VB DT happy camper 
minimum wage 
john mayer 
DT musical instrument 
NN \p{Graph}+ IN DT daily basis 
VB VB VB \p{Graph}+ last night 
amazes me 
IN great detail 
weird huh 
drug addict 
IN PRP win DT lottery 
PRP had DT blast 
VB \p{Graph}+ \p{Graph}+ pain killers 
PRP VB \p{Graph}+ IN great detail 
VB \p{Graph}+ \p{Graph}+ \p{Graph}+ shopping spree 
VB VB IN DT daily basis 
PRP hadn rsquo 
home depot 
green beans 
NN JJ aka tamatersweet 
VB \p{Graph}+ \p{Graph}+ IN north carolina 
DT season finale 
jet lag 
north carolina 
TO VB DT new cd 
TO VB napoleon dynamite 
NN IN great detail 
VB DT firm believer IN 
VB \p{Graph}+ NN \p{Graph}+ last night 
VB \p{Graph}+ \p{Graph}+ DT season finale 
gilmore girls 
PRP pressed DT buzzer 
NN \p{Graph}+ VB DT musical instrument 
DT root canal 
VB DT JJ cd player 
NN IN mass destruction 
VB DT musical instrument 
pissing me RP 
VB napoleon dynamite 
VB NN \p{Graph}+ pain killers 
clockwork orange 
soap operas 
VB IN PRP cd player 
lady gaga 
season finale 
favorite sport 
PRP \p{Graph}+ \p{Graph}+ favorite sport 
NN had DT blast 
NN french fries 
VB \p{Graph}+ \p{Graph}+ \p{Graph}+ CD cd player 
VB DT new cd IN 
VB IN DT shopping spree 
angelina jolie 
VB VB \p{Graph}+ NN last night 
DT air conditioner 
NN \p{Graph}+ \p{Graph}+ DT daily basis 
runny nose 
DT roller coaster 
VB IN DT daily basis 
attention span 
IN DT regular basis 
VB IN weird huh 
dashboard confessional 
tickles PRP fancy 
PRP VB \p{Graph}+ favorite sport 
bill gates 
had DT blast 
NN \p{Graph}+ haunts me 
dominican republic 
TO VB PRP DT new cd 
pizza hut 
chicken pox 
VB \p{Graph}+ \p{Graph}+ roller coasters 
oscar wilde 
VB VB last night 
DT power outage 
NN \p{Graph}+ john steinbeck 
VB \p{Graph}+ VB roller coasters 
clean slate 
san francisco 
win \p{Graph}+ lottery 
VB \p{Graph}+ \p{Graph}+ roller coaster 
PRP DT cd player 
VB \p{Graph}+ pizza hut 
IN DT roller coaster 
pissing me 
year olds 
flip flops 
NN \p{Graph}+ had DT blast 
air conditioner 
VB NN IN great detail 
VB \p{Graph}+ IN DT regular basis 
amuses me 
VB RB IN PRP cd player 
air conditioning 
IN mass destruction 
des moines 
VB \p{Graph}+ \p{Graph}+ \p{Graph}+ last night 
win DT lottery 
fascinates me 
NN \p{Graph}+ \p{Graph}+ \p{Graph}+ daily basis 
DT drug addict 
VB DT new cd 
DT air conditioning 
RB NN cd player 
baffles me 
VB IN \p{Graph}+ hot tub 
VB \p{Graph}+ IN DT daily basis 
VB NN \p{Graph}+ last night 
different types IN 
VB DT firm believer 
puerto rico 
DT \p{Graph}+ \p{Graph}+ IN great detail 
NN \p{Graph}+ daily basis 
PRP VB \p{Graph}+ DT drug addict 
have \p{Graph}+ clue 
IN los angeles 
title sequence 
VB IN DT death penalty 
IN deviant art 
VB \p{Graph}+ favorite sport 
last resort 
pisses me RP 
diet coke 
VB \p{Graph}+ DT regular basis 
student loans 
NN PRP had DT blast 
NN \p{Graph}+ \p{Graph}+ 40th birthday 
VB last night 
PRP win DT lottery 
united states 
VB \p{Graph}+ NN NN last night 
NN \p{Graph}+ last night 
search engines 
PRP have DT wii 
last nite 
VB NN IN DT daily basis 
last night 
VB IN DT roller coaster 
deep breaths 
roller coasters 
VB \p{Graph}+ VB \p{Graph}+ last night 
NN \p{Graph}+ sofia dice 
VB DT drug addict 
PRP VB \p{Graph}+ happy camper 
self esteem 
TO VB \p{Graph}+ IN PRP cd player 
NN NN last night 
attention span IN 
VB \p{Graph}+ last night 
different types 
NN \p{Graph}+ favorite sport 
jamba juice 
VB \p{Graph}+ \p{Graph}+ \p{Graph}+ new cd 
great detail 
regular basis 
french fries 
DT NN vinci code 
boggles \p{Graph}+ mind 
shopping spree 
VB IN DT hot tub 
last resort IN 
project runway 
depresses me 
las vegas 
TO north carolina 
PRP VB \p{Graph}+ \p{Graph}+ drug addict 
NN IN las vegas 
VB VB \p{Graph}+ DT new cd IN 
NN \p{Graph}+ \p{Graph}+ favorite sport 
VB IN DT \p{Graph}+ shopping spree 
PRP \p{Graph}+ \p{Graph}+ mood swings 
DT clean slate 
reminds me IN 
PRP \p{Graph}+ \p{Graph}+ \p{Graph}+ musical instrument 
JJ cd player 
NN las vegas 
IN DT death penalty 
catch NN NN lata 
NN IN DT daily basis 
joss whedon 
PRP \p{Graph}+ \p{Graph}+ IN great detail 
IN further ado 
VB \p{Graph}+ VB NN last night 
NN vinci code 
VB \p{Graph}+ DT drug addict 
40th birthday 
different types \p{Graph}+ NN 
santa cruz 
IN las vegas 
NN \p{Graph}+ french fries 
DT \p{Graph}+ IN great detail 
VB VB NN NN last night 
VB \p{Graph}+ \p{Graph}+ \p{Graph}+ season finale 
haunts me 
VB \p{Graph}+ DT happy camper 
sylvia plath 
VB \p{Graph}+ DT shopping spree 
cell phones 
NN POS 40th birthday 
VB NN last night 
VB \p{Graph}+ \p{Graph}+ NN last night 
DT hot tub 
los angeles 
PRP VB DT happy camper 
NN VB IN DT daily basis 
napoleon dynamite 
pork chops 
new cd 
tilted PRP head 
emma watson 
musical instrument 
VB \p{Graph}+ \p{Graph}+ \p{Graph}+ regular basis 
VB \p{Graph}+ DT hot tub 
chicken nuggets 
TO VB PRP DT JJ cd player 
IN DT daily basis 
title sequence IN 
reminds me 
VB VB NN \p{Graph}+ last night 
NN \p{Graph}+ sylvia plath 
VB \p{Graph}+ \p{Graph}+ PRP self esteem 
PRP VB \p{Graph}+ \p{Graph}+ happy camper 
DT happy camper 
PRP \p{Graph}+ \p{Graph}+ happy camper 
NN tilted PRP head 
human beings 
ginger ale 
weight watchers 
PRP NN IN great detail 
IN DT hot tub 
PRP VB \p{Graph}+ DT happy camper 
VB VB \p{Graph}+ last night 
VB VB TO VB PRP cd player 
NN snow patrol 
CD year olds 
PRP VB IN PRP cd player 
patron saint 
VB \p{Graph}+ \p{Graph}+ last night 
facial expressions 
VB TO \p{Graph}+ \p{Graph}+ new cd 
hadn rsquo NN 
root canal 
sofia dice 
foo fighters 
VB NN NN last night 
VB roller coasters 
VB \p{Graph}+ DT death penalty 
TO win DT lottery 
VB PRP cd player 
chicken nuggets NN 
DT \p{Graph}+ \p{Graph}+ weird huh 
IN \p{Graph}+ \p{Graph}+ IN deviant art 
DT NN IN great detail 
NN last night 
PRP VB DT firm believer IN 
pisses me 
further ado 
VB \p{Graph}+ \p{Graph}+ \p{Graph}+ self esteem 
daily basis 
assure you 
VB \p{Graph}+ root canal 
wal mart 
roller coaster 
VB \p{Graph}+ hot tub 
NN IN costa rica 
VB PRP \p{Graph}+ IN PRP cd player CC 
facial expressions IN 
have DT clue 
DT death penalty 
VB \p{Graph}+ PRP self esteem 
VB \p{Graph}+ \p{Graph}+ IN great detail 
VB \p{Graph}+ \p{Graph}+ \p{Graph}+ daily basis 
NN pain killers 
t00 emo 
PRP VB DT cd player 
IN PRP cd player 
VB VB TO NN new cd IN 
mark haddon 
VB \p{Graph}+ mood swings 
VB \p{Graph}+ NN last night 
pain killers 
NN \p{Graph}+ \p{Graph}+ \p{Graph}+ regular basis 
different types IN NN 
death penalty 
IN hot tub 
VB \p{Graph}+ DT roller coaster 
few daes 
DT dominican republic 
NN \p{Graph}+ DT tickles PRP fancy 
PRP VB DT new cd 
NN NN IN DT regular basis 
JJ NN merited celebration 
PRP self esteem 
DT shopping spree 
VB VB NN last night 
few exceptions 
NN VB IN DT regular basis 
deviant art 
DT tickles PRP fancy 
