santa claus 
pisses me RP 
IN \p{Graph}+ hot tub 
crock pot 
mel gibson 
PRP got CD turntables CC DT NN RB 
human beings 
IN san francisco 
van halen 
have \p{Graph}+ clue 
puerto rico 
last night 
tom hanks 
NN \p{Graph}+ jack kerouac 
hot tub 
san francisco 
ben affleck 
DT JJ DT fast 123 
irritates me 
PRP \p{Graph}+ boggles PRP mind 
bill maher 
jd salinger 
JJ triceps extension CD 
est DT vie 
IN sri lanka 
VB \p{Graph}+ VB adding headlines TO 
IN las vegas 
DT happy camper 
wal mart 
VB NN bill vol 
VB \p{Graph}+ \p{Graph}+ happy camper 
bothers me 
NN \p{Graph}+ \p{Graph}+ crock pot 
PRP got CD turntables CC DT NN 
home depot 
sean connery 
unconditional love 
air conditioning 
flip flops 
ashton kutcher 
IN DT hot tub 
DT hot tub 
NN \p{Graph}+ crock pot 
blond hair 
VB JJ digg story 
marilyn manson 
amuses me 
RB JJ CC PRP untimely death RB VB DT 
NN \p{Graph}+ \p{Graph}+ \p{Graph}+ amaze me 
JJ NN IN PRP own witticism 
jimi hendrix 
IN further ado 
boggles \p{Graph}+ mind 
confuses me 
IN san diego 
depresses me 
chainsaw massacre 
work ethic 
NN RB VB TO amaze me 
pardon me 
VB TO amaze me 
RB VB TO amaze me 
saddens me 
doc ock 
CC eat limes 
NN IN DT foreseeable future 
NN chainsaw massacre 
DT JJ fatality rate VB 
pisses me 
VB \p{Graph}+ home depot 
end transmission 
boggles PRP mind 
food poisoning 
roller coasters 
chrono trigger 
student loans 
man utd 
bin laden 
reminds me 
NN IN DT crock pot 
lawn mower 
IN \p{Graph}+ \p{Graph}+ alien writings IN 
barack obama 
NN \p{Graph}+ VB TO amaze me 
pizza hut 
IN DT foreseeable future 
las vegas 
JJ \p{Graph}+ \p{Graph}+ \p{Graph}+ untimely death 
disgusts me 
further ado 
john lennon 
dashboard confessional 
NN IN north carolina 
VB NN bill vol CD 
buf append RB 
NN CC eat limes 
CD year olds 
lata playa 
costa rica 
JJ fatality rate VB 
NN 1024x768 800x600 
reminds me IN 
deja vu 
amazes me 
VB \p{Graph}+ DT happy camper 
NN \p{Graph}+ \p{Graph}+ amaze me 
have DT clue 
amaze me 
baton rouge 
fatality rate 
IN DT crock pot 
air conditioner 
search engines 
VB bill vol 
san diego 
VB napoleon dynamite 
alma mater 
