VB TO PRP deepest desires 
miss DT trick 
ebola outbreak 
RB VB answered prayers IN NN CC 
human beings 
NN CD new listings CD 
NN VB RB miss DT trick 
NN \p{Graph}+ like PRP poems 
bill ayers 
karl rove 
stop DT liberal lame duck session 
poll watchers TO \p{Graph}+ NN 
CD new followers 
new follower 
CD new listings CD \p{Graph}+ NN 
NN \p{Graph}+ \p{Graph}+ \p{Graph}+ voter intimidation 
year olds 
fundamental transformation \p{Graph}+ \p{Graph}+ \p{Graph}+ NN 
DT restraining order 
NN twitter directory IN 
VB DT restraining order IN 
CD new unfollower IN 
concession speech 
restraining order 
community organizer 
NN article courtesy IN 
CD new listings CD 
VB DT liberal lame duck session 
VB \p{Graph}+ \p{Graph}+ lame duck session 
founding fathers 
something fishy 
bombshell memo \p{Graph}+ NN 
VB \p{Graph}+ \p{Graph}+ \p{Graph}+ death panels 
VB defective memory NN NN 
lame duck session 
job creators 
NN PRP VB DT restraining order 
first responders 
CD new unfollower 
VB PRP IN gov crack addicts IN DT 
al gore 
butt dialing \p{Graph}+ \p{Graph}+ \p{Graph}+ CD 
senate seat IN 
food stamps 
NN CD new listings CD \p{Graph}+ NN 
thx CD fave 
RB find DT RB \p{Graph}+ hive \p{Graph}+ NN \p{Graph}+ NN 
NN twitter directory 
NN PRP VB DT restraining order IN 
abortion clinics 
IN \p{Graph}+ straw poll 
PRP VB IN excessive intrusive JJ JJ 
spot other problems http 
new followers 
new follower \p{Graph}+ \p{Graph}+ NN 
ebola czar 
NN hearing http 
immigration reform 
NN thx CD fave 
state dept 
NN \p{Graph}+ zip codes 
death panels 
fundamental transformation 
barack obama 
term limits 
NN PRP like PRP poems 
NN \p{Graph}+ \p{Graph}+ john barrowman 
VB DT restraining order 
DT restraining order IN 
NN \p{Graph}+ have \p{Graph}+ \p{Graph}+ wkend 
NN \p{Graph}+ \p{Graph}+ senate seat 
PRP have DT rising NN graph 
CD year olds 
tom cotton 
NN \p{Graph}+ term limits 
NN \p{Graph}+ \p{Graph}+ \p{Graph}+ senate seat 
harry reid 
tax payers 
RB \p{Graph}+ DT other NN http 
poll watchers 
voter intimidation 
joni ernst 
NN zip codes 
straw poll 
new follower IN 
juan williams 
arrest warrant 
